traces_sc.vcd
$date
     Feb 14, 2024       12:40:53
$end

$version
 SystemC 2.3.3-Accellera --- May 19 2023 14:44:00
$end

$timescale
     1 ps
$end

$scope module SystemC $end
$var wire    1  aaaaa  er_0->afterSubBytes       $end
$var wire    1  aaaab  er_0->afterSubBytes       $end
$var wire    1  aaaac  er_0->afterSubBytes       $end
$var wire    1  aaaad  er_0->afterSubBytes       $end
$var wire    1  aaaae  er_0->afterSubBytes       $end
$var wire    1  aaaaf  er_0->afterSubBytes       $end
$var wire    1  aaaag  er_0->afterSubBytes       $end
$var wire    1  aaaah  er_0->afterSubBytes       $end
$var wire    1  aaaai  er_0->afterSubBytes       $end
$var wire    1  aaaaj  er_0->afterSubBytes       $end
$var wire    1  aaaak  er_0->afterSubBytes       $end
$var wire    1  aaaal  er_0->afterSubBytes       $end
$var wire    1  aaaam  er_0->afterSubBytes       $end
$var wire    1  aaaan  er_0->afterSubBytes       $end
$var wire    1  aaaao  er_0->afterSubBytes       $end
$var wire    1  aaaap  er_0->afterSubBytes       $end
$var wire    1  aaaaq  er_0->afterSubBytes       $end
$var wire    1  aaaar  er_0->afterSubBytes       $end
$var wire    1  aaaas  er_0->afterSubBytes       $end
$var wire    1  aaaat  er_0->afterSubBytes       $end
$var wire    1  aaaau  er_0->afterSubBytes       $end
$var wire    1  aaaav  er_0->afterSubBytes       $end
$var wire    1  aaaaw  er_0->afterSubBytes       $end
$var wire    1  aaaax  er_0->afterSubBytes       $end
$var wire    1  aaaay  er_0->afterSubBytes       $end
$var wire    1  aaaaz  er_0->afterSubBytes       $end
$var wire    1  aaaba  er_0->afterSubBytes       $end
$var wire    1  aaabb  er_0->afterSubBytes       $end
$var wire    1  aaabc  er_0->afterSubBytes       $end
$var wire    1  aaabd  er_0->afterSubBytes       $end
$var wire    1  aaabe  er_0->afterSubBytes       $end
$var wire    1  aaabf  er_0->afterSubBytes       $end
$var wire    1  aaabg  er_0->afterSubBytes       $end
$var wire    1  aaabh  er_0->afterSubBytes       $end
$var wire    1  aaabi  er_0->afterSubBytes       $end
$var wire    1  aaabj  er_0->afterSubBytes       $end
$var wire    1  aaabk  er_0->afterSubBytes       $end
$var wire    1  aaabl  er_0->afterSubBytes       $end
$var wire    1  aaabm  er_0->afterSubBytes       $end
$var wire    1  aaabn  er_0->afterSubBytes       $end
$var wire    1  aaabo  er_0->afterSubBytes       $end
$var wire    1  aaabp  er_0->afterSubBytes       $end
$var wire    1  aaabq  er_0->afterSubBytes       $end
$var wire    1  aaabr  er_0->afterSubBytes       $end
$var wire    1  aaabs  er_0->afterSubBytes       $end
$var wire    1  aaabt  er_0->afterSubBytes       $end
$var wire    1  aaabu  er_0->afterSubBytes       $end
$var wire    1  aaabv  er_0->afterSubBytes       $end
$var wire    1  aaabw  er_0->afterSubBytes       $end
$var wire    1  aaabx  er_0->afterSubBytes       $end
$var wire    1  aaaby  er_0->afterSubBytes       $end
$var wire    1  aaabz  er_0->afterSubBytes       $end
$var wire    1  aaaca  er_0->afterSubBytes       $end
$var wire    1  aaacb  er_0->afterSubBytes       $end
$var wire    1  aaacc  er_0->afterSubBytes       $end
$var wire    1  aaacd  er_0->afterSubBytes       $end
$var wire    1  aaace  er_0->afterSubBytes       $end
$var wire    1  aaacf  er_0->afterSubBytes       $end
$var wire    1  aaacg  er_0->afterSubBytes       $end
$var wire    1  aaach  er_0->afterSubBytes       $end
$var wire    1  aaaci  er_0->afterSubBytes       $end
$var wire    1  aaacj  er_0->afterSubBytes       $end
$var wire    1  aaack  er_0->afterSubBytes       $end
$var wire    1  aaacl  er_0->afterSubBytes       $end
$var wire    1  aaacm  er_0->afterSubBytes       $end
$var wire    1  aaacn  er_0->afterSubBytes       $end
$var wire    1  aaaco  er_0->afterSubBytes       $end
$var wire    1  aaacp  er_0->afterSubBytes       $end
$var wire    1  aaacq  er_0->afterSubBytes       $end
$var wire    1  aaacr  er_0->afterSubBytes       $end
$var wire    1  aaacs  er_0->afterSubBytes       $end
$var wire    1  aaact  er_0->afterSubBytes       $end
$var wire    1  aaacu  er_0->afterSubBytes       $end
$var wire    1  aaacv  er_0->afterSubBytes       $end
$var wire    1  aaacw  er_0->afterSubBytes       $end
$var wire    1  aaacx  er_0->afterSubBytes       $end
$var wire    1  aaacy  er_0->afterSubBytes       $end
$var wire    1  aaacz  er_0->afterSubBytes       $end
$var wire    1  aaada  er_0->afterSubBytes       $end
$var wire    1  aaadb  er_0->afterSubBytes       $end
$var wire    1  aaadc  er_0->afterSubBytes       $end
$var wire    1  aaadd  er_0->afterSubBytes       $end
$var wire    1  aaade  er_0->afterSubBytes       $end
$var wire    1  aaadf  er_0->afterSubBytes       $end
$var wire    1  aaadg  er_0->afterSubBytes       $end
$var wire    1  aaadh  er_0->afterSubBytes       $end
$var wire    1  aaadi  er_0->afterSubBytes       $end
$var wire    1  aaadj  er_0->afterSubBytes       $end
$var wire    1  aaadk  er_0->afterSubBytes       $end
$var wire    1  aaadl  er_0->afterSubBytes       $end
$var wire    1  aaadm  er_0->afterSubBytes       $end
$var wire    1  aaadn  er_0->afterSubBytes       $end
$var wire    1  aaado  er_0->afterSubBytes       $end
$var wire    1  aaadp  er_0->afterSubBytes       $end
$var wire    1  aaadq  er_0->afterSubBytes       $end
$var wire    1  aaadr  er_0->afterSubBytes       $end
$var wire    1  aaads  er_0->afterSubBytes       $end
$var wire    1  aaadt  er_0->afterSubBytes       $end
$var wire    1  aaadu  er_0->afterSubBytes       $end
$var wire    1  aaadv  er_0->afterSubBytes       $end
$var wire    1  aaadw  er_0->afterSubBytes       $end
$var wire    1  aaadx  er_0->afterSubBytes       $end
$var wire    1  aaady  er_0->afterSubBytes       $end
$var wire    1  aaadz  er_0->afterSubBytes       $end
$var wire    1  aaaea  er_0->afterSubBytes       $end
$var wire    1  aaaeb  er_0->afterSubBytes       $end
$var wire    1  aaaec  er_0->afterSubBytes       $end
$var wire    1  aaaed  er_0->afterSubBytes       $end
$var wire    1  aaaee  er_0->afterSubBytes       $end
$var wire    1  aaaef  er_0->afterSubBytes       $end
$var wire    1  aaaeg  er_0->afterSubBytes       $end
$var wire    1  aaaeh  er_0->afterSubBytes       $end
$var wire    1  aaaei  er_0->afterSubBytes       $end
$var wire    1  aaaej  er_0->afterSubBytes       $end
$var wire    1  aaaek  er_0->afterSubBytes       $end
$var wire    1  aaael  er_0->afterSubBytes       $end
$var wire    1  aaaem  er_0->afterSubBytes       $end
$var wire    1  aaaen  er_0->afterSubBytes       $end
$var wire    1  aaaeo  er_0->afterSubBytes       $end
$var wire    1  aaaep  er_0->afterSubBytes       $end
$var wire    1  aaaeq  er_0->afterSubBytes       $end
$var wire    1  aaaer  er_0->afterSubBytes       $end
$var wire    1  aaaes  er_0->afterSubBytes       $end
$var wire    1  aaaet  er_0->afterSubBytes       $end
$var wire    1  aaaeu  er_0->afterSubBytes       $end
$var wire    1  aaaev  er_0->afterSubBytes       $end
$var wire    1  aaaew  er_0->afterSubBytes       $end
$var wire    1  aaaex  er_0->afterSubBytes       $end
$var wire    1  aaaey  er_0->afterShiftRows       $end
$var wire    1  aaaez  er_0->afterShiftRows       $end
$var wire    1  aaafa  er_0->afterShiftRows       $end
$var wire    1  aaafb  er_0->afterShiftRows       $end
$var wire    1  aaafc  er_0->afterShiftRows       $end
$var wire    1  aaafd  er_0->afterShiftRows       $end
$var wire    1  aaafe  er_0->afterShiftRows       $end
$var wire    1  aaaff  er_0->afterShiftRows       $end
$var wire    1  aaafg  er_0->afterShiftRows       $end
$var wire    1  aaafh  er_0->afterShiftRows       $end
$var wire    1  aaafi  er_0->afterShiftRows       $end
$var wire    1  aaafj  er_0->afterShiftRows       $end
$var wire    1  aaafk  er_0->afterShiftRows       $end
$var wire    1  aaafl  er_0->afterShiftRows       $end
$var wire    1  aaafm  er_0->afterShiftRows       $end
$var wire    1  aaafn  er_0->afterShiftRows       $end
$var wire    1  aaafo  er_0->afterShiftRows       $end
$var wire    1  aaafp  er_0->afterShiftRows       $end
$var wire    1  aaafq  er_0->afterShiftRows       $end
$var wire    1  aaafr  er_0->afterShiftRows       $end
$var wire    1  aaafs  er_0->afterShiftRows       $end
$var wire    1  aaaft  er_0->afterShiftRows       $end
$var wire    1  aaafu  er_0->afterShiftRows       $end
$var wire    1  aaafv  er_0->afterShiftRows       $end
$var wire    1  aaafw  er_0->afterShiftRows       $end
$var wire    1  aaafx  er_0->afterShiftRows       $end
$var wire    1  aaafy  er_0->afterShiftRows       $end
$var wire    1  aaafz  er_0->afterShiftRows       $end
$var wire    1  aaaga  er_0->afterShiftRows       $end
$var wire    1  aaagb  er_0->afterShiftRows       $end
$var wire    1  aaagc  er_0->afterShiftRows       $end
$var wire    1  aaagd  er_0->afterShiftRows       $end
$var wire    1  aaage  er_0->afterShiftRows       $end
$var wire    1  aaagf  er_0->afterShiftRows       $end
$var wire    1  aaagg  er_0->afterShiftRows       $end
$var wire    1  aaagh  er_0->afterShiftRows       $end
$var wire    1  aaagi  er_0->afterShiftRows       $end
$var wire    1  aaagj  er_0->afterShiftRows       $end
$var wire    1  aaagk  er_0->afterShiftRows       $end
$var wire    1  aaagl  er_0->afterShiftRows       $end
$var wire    1  aaagm  er_0->afterShiftRows       $end
$var wire    1  aaagn  er_0->afterShiftRows       $end
$var wire    1  aaago  er_0->afterShiftRows       $end
$var wire    1  aaagp  er_0->afterShiftRows       $end
$var wire    1  aaagq  er_0->afterShiftRows       $end
$var wire    1  aaagr  er_0->afterShiftRows       $end
$var wire    1  aaags  er_0->afterShiftRows       $end
$var wire    1  aaagt  er_0->afterShiftRows       $end
$var wire    1  aaagu  er_0->afterShiftRows       $end
$var wire    1  aaagv  er_0->afterShiftRows       $end
$var wire    1  aaagw  er_0->afterShiftRows       $end
$var wire    1  aaagx  er_0->afterShiftRows       $end
$var wire    1  aaagy  er_0->afterShiftRows       $end
$var wire    1  aaagz  er_0->afterShiftRows       $end
$var wire    1  aaaha  er_0->afterShiftRows       $end
$var wire    1  aaahb  er_0->afterShiftRows       $end
$var wire    1  aaahc  er_0->afterShiftRows       $end
$var wire    1  aaahd  er_0->afterShiftRows       $end
$var wire    1  aaahe  er_0->afterShiftRows       $end
$var wire    1  aaahf  er_0->afterShiftRows       $end
$var wire    1  aaahg  er_0->afterShiftRows       $end
$var wire    1  aaahh  er_0->afterShiftRows       $end
$var wire    1  aaahi  er_0->afterShiftRows       $end
$var wire    1  aaahj  er_0->afterShiftRows       $end
$var wire    1  aaahk  er_0->afterShiftRows       $end
$var wire    1  aaahl  er_0->afterShiftRows       $end
$var wire    1  aaahm  er_0->afterShiftRows       $end
$var wire    1  aaahn  er_0->afterShiftRows       $end
$var wire    1  aaaho  er_0->afterShiftRows       $end
$var wire    1  aaahp  er_0->afterShiftRows       $end
$var wire    1  aaahq  er_0->afterShiftRows       $end
$var wire    1  aaahr  er_0->afterShiftRows       $end
$var wire    1  aaahs  er_0->afterShiftRows       $end
$var wire    1  aaaht  er_0->afterShiftRows       $end
$var wire    1  aaahu  er_0->afterShiftRows       $end
$var wire    1  aaahv  er_0->afterShiftRows       $end
$var wire    1  aaahw  er_0->afterShiftRows       $end
$var wire    1  aaahx  er_0->afterShiftRows       $end
$var wire    1  aaahy  er_0->afterShiftRows       $end
$var wire    1  aaahz  er_0->afterShiftRows       $end
$var wire    1  aaaia  er_0->afterShiftRows       $end
$var wire    1  aaaib  er_0->afterShiftRows       $end
$var wire    1  aaaic  er_0->afterShiftRows       $end
$var wire    1  aaaid  er_0->afterShiftRows       $end
$var wire    1  aaaie  er_0->afterShiftRows       $end
$var wire    1  aaaif  er_0->afterShiftRows       $end
$var wire    1  aaaig  er_0->afterShiftRows       $end
$var wire    1  aaaih  er_0->afterShiftRows       $end
$var wire    1  aaaii  er_0->afterShiftRows       $end
$var wire    1  aaaij  er_0->afterShiftRows       $end
$var wire    1  aaaik  er_0->afterShiftRows       $end
$var wire    1  aaail  er_0->afterShiftRows       $end
$var wire    1  aaaim  er_0->afterShiftRows       $end
$var wire    1  aaain  er_0->afterShiftRows       $end
$var wire    1  aaaio  er_0->afterShiftRows       $end
$var wire    1  aaaip  er_0->afterShiftRows       $end
$var wire    1  aaaiq  er_0->afterShiftRows       $end
$var wire    1  aaair  er_0->afterShiftRows       $end
$var wire    1  aaais  er_0->afterShiftRows       $end
$var wire    1  aaait  er_0->afterShiftRows       $end
$var wire    1  aaaiu  er_0->afterShiftRows       $end
$var wire    1  aaaiv  er_0->afterShiftRows       $end
$var wire    1  aaaiw  er_0->afterShiftRows       $end
$var wire    1  aaaix  er_0->afterShiftRows       $end
$var wire    1  aaaiy  er_0->afterShiftRows       $end
$var wire    1  aaaiz  er_0->afterShiftRows       $end
$var wire    1  aaaja  er_0->afterShiftRows       $end
$var wire    1  aaajb  er_0->afterShiftRows       $end
$var wire    1  aaajc  er_0->afterShiftRows       $end
$var wire    1  aaajd  er_0->afterShiftRows       $end
$var wire    1  aaaje  er_0->afterShiftRows       $end
$var wire    1  aaajf  er_0->afterShiftRows       $end
$var wire    1  aaajg  er_0->afterShiftRows       $end
$var wire    1  aaajh  er_0->afterShiftRows       $end
$var wire    1  aaaji  er_0->afterShiftRows       $end
$var wire    1  aaajj  er_0->afterShiftRows       $end
$var wire    1  aaajk  er_0->afterShiftRows       $end
$var wire    1  aaajl  er_0->afterShiftRows       $end
$var wire    1  aaajm  er_0->afterShiftRows       $end
$var wire    1  aaajn  er_0->afterShiftRows       $end
$var wire    1  aaajo  er_0->afterShiftRows       $end
$var wire    1  aaajp  er_0->afterShiftRows       $end
$var wire    1  aaajq  er_0->afterShiftRows       $end
$var wire    1  aaajr  er_0->afterShiftRows       $end
$var wire    1  aaajs  er_0->afterShiftRows       $end
$var wire    1  aaajt  er_0->afterShiftRows       $end
$var wire    1  aaaju  er_0->afterShiftRows       $end
$var wire    1  aaajv  er_0->afterShiftRows       $end
$var wire    1  aaajw  er_0->afterMixColumns       $end
$var wire    1  aaajx  er_0->afterMixColumns       $end
$var wire    1  aaajy  er_0->afterMixColumns       $end
$var wire    1  aaajz  er_0->afterMixColumns       $end
$var wire    1  aaaka  er_0->afterMixColumns       $end
$var wire    1  aaakb  er_0->afterMixColumns       $end
$var wire    1  aaakc  er_0->afterMixColumns       $end
$var wire    1  aaakd  er_0->afterMixColumns       $end
$var wire    1  aaake  er_0->afterMixColumns       $end
$var wire    1  aaakf  er_0->afterMixColumns       $end
$var wire    1  aaakg  er_0->afterMixColumns       $end
$var wire    1  aaakh  er_0->afterMixColumns       $end
$var wire    1  aaaki  er_0->afterMixColumns       $end
$var wire    1  aaakj  er_0->afterMixColumns       $end
$var wire    1  aaakk  er_0->afterMixColumns       $end
$var wire    1  aaakl  er_0->afterMixColumns       $end
$var wire    1  aaakm  er_0->afterMixColumns       $end
$var wire    1  aaakn  er_0->afterMixColumns       $end
$var wire    1  aaako  er_0->afterMixColumns       $end
$var wire    1  aaakp  er_0->afterMixColumns       $end
$var wire    1  aaakq  er_0->afterMixColumns       $end
$var wire    1  aaakr  er_0->afterMixColumns       $end
$var wire    1  aaaks  er_0->afterMixColumns       $end
$var wire    1  aaakt  er_0->afterMixColumns       $end
$var wire    1  aaaku  er_0->afterMixColumns       $end
$var wire    1  aaakv  er_0->afterMixColumns       $end
$var wire    1  aaakw  er_0->afterMixColumns       $end
$var wire    1  aaakx  er_0->afterMixColumns       $end
$var wire    1  aaaky  er_0->afterMixColumns       $end
$var wire    1  aaakz  er_0->afterMixColumns       $end
$var wire    1  aaala  er_0->afterMixColumns       $end
$var wire    1  aaalb  er_0->afterMixColumns       $end
$var wire    1  aaalc  er_0->afterMixColumns       $end
$var wire    1  aaald  er_0->afterMixColumns       $end
$var wire    1  aaale  er_0->afterMixColumns       $end
$var wire    1  aaalf  er_0->afterMixColumns       $end
$var wire    1  aaalg  er_0->afterMixColumns       $end
$var wire    1  aaalh  er_0->afterMixColumns       $end
$var wire    1  aaali  er_0->afterMixColumns       $end
$var wire    1  aaalj  er_0->afterMixColumns       $end
$var wire    1  aaalk  er_0->afterMixColumns       $end
$var wire    1  aaall  er_0->afterMixColumns       $end
$var wire    1  aaalm  er_0->afterMixColumns       $end
$var wire    1  aaaln  er_0->afterMixColumns       $end
$var wire    1  aaalo  er_0->afterMixColumns       $end
$var wire    1  aaalp  er_0->afterMixColumns       $end
$var wire    1  aaalq  er_0->afterMixColumns       $end
$var wire    1  aaalr  er_0->afterMixColumns       $end
$var wire    1  aaals  er_0->afterMixColumns       $end
$var wire    1  aaalt  er_0->afterMixColumns       $end
$var wire    1  aaalu  er_0->afterMixColumns       $end
$var wire    1  aaalv  er_0->afterMixColumns       $end
$var wire    1  aaalw  er_0->afterMixColumns       $end
$var wire    1  aaalx  er_0->afterMixColumns       $end
$var wire    1  aaaly  er_0->afterMixColumns       $end
$var wire    1  aaalz  er_0->afterMixColumns       $end
$var wire    1  aaama  er_0->afterMixColumns       $end
$var wire    1  aaamb  er_0->afterMixColumns       $end
$var wire    1  aaamc  er_0->afterMixColumns       $end
$var wire    1  aaamd  er_0->afterMixColumns       $end
$var wire    1  aaame  er_0->afterMixColumns       $end
$var wire    1  aaamf  er_0->afterMixColumns       $end
$var wire    1  aaamg  er_0->afterMixColumns       $end
$var wire    1  aaamh  er_0->afterMixColumns       $end
$var wire    1  aaami  er_0->afterMixColumns       $end
$var wire    1  aaamj  er_0->afterMixColumns       $end
$var wire    1  aaamk  er_0->afterMixColumns       $end
$var wire    1  aaaml  er_0->afterMixColumns       $end
$var wire    1  aaamm  er_0->afterMixColumns       $end
$var wire    1  aaamn  er_0->afterMixColumns       $end
$var wire    1  aaamo  er_0->afterMixColumns       $end
$var wire    1  aaamp  er_0->afterMixColumns       $end
$var wire    1  aaamq  er_0->afterMixColumns       $end
$var wire    1  aaamr  er_0->afterMixColumns       $end
$var wire    1  aaams  er_0->afterMixColumns       $end
$var wire    1  aaamt  er_0->afterMixColumns       $end
$var wire    1  aaamu  er_0->afterMixColumns       $end
$var wire    1  aaamv  er_0->afterMixColumns       $end
$var wire    1  aaamw  er_0->afterMixColumns       $end
$var wire    1  aaamx  er_0->afterMixColumns       $end
$var wire    1  aaamy  er_0->afterMixColumns       $end
$var wire    1  aaamz  er_0->afterMixColumns       $end
$var wire    1  aaana  er_0->afterMixColumns       $end
$var wire    1  aaanb  er_0->afterMixColumns       $end
$var wire    1  aaanc  er_0->afterMixColumns       $end
$var wire    1  aaand  er_0->afterMixColumns       $end
$var wire    1  aaane  er_0->afterMixColumns       $end
$var wire    1  aaanf  er_0->afterMixColumns       $end
$var wire    1  aaang  er_0->afterMixColumns       $end
$var wire    1  aaanh  er_0->afterMixColumns       $end
$var wire    1  aaani  er_0->afterMixColumns       $end
$var wire    1  aaanj  er_0->afterMixColumns       $end
$var wire    1  aaank  er_0->afterMixColumns       $end
$var wire    1  aaanl  er_0->afterMixColumns       $end
$var wire    1  aaanm  er_0->afterMixColumns       $end
$var wire    1  aaann  er_0->afterMixColumns       $end
$var wire    1  aaano  er_0->afterMixColumns       $end
$var wire    1  aaanp  er_0->afterMixColumns       $end
$var wire    1  aaanq  er_0->afterMixColumns       $end
$var wire    1  aaanr  er_0->afterMixColumns       $end
$var wire    1  aaans  er_0->afterMixColumns       $end
$var wire    1  aaant  er_0->afterMixColumns       $end
$var wire    1  aaanu  er_0->afterMixColumns       $end
$var wire    1  aaanv  er_0->afterMixColumns       $end
$var wire    1  aaanw  er_0->afterMixColumns       $end
$var wire    1  aaanx  er_0->afterMixColumns       $end
$var wire    1  aaany  er_0->afterMixColumns       $end
$var wire    1  aaanz  er_0->afterMixColumns       $end
$var wire    1  aaaoa  er_0->afterMixColumns       $end
$var wire    1  aaaob  er_0->afterMixColumns       $end
$var wire    1  aaaoc  er_0->afterMixColumns       $end
$var wire    1  aaaod  er_0->afterMixColumns       $end
$var wire    1  aaaoe  er_0->afterMixColumns       $end
$var wire    1  aaaof  er_0->afterMixColumns       $end
$var wire    1  aaaog  er_0->afterMixColumns       $end
$var wire    1  aaaoh  er_0->afterMixColumns       $end
$var wire    1  aaaoi  er_0->afterMixColumns       $end
$var wire    1  aaaoj  er_0->afterMixColumns       $end
$var wire    1  aaaok  er_0->afterMixColumns       $end
$var wire    1  aaaol  er_0->afterMixColumns       $end
$var wire    1  aaaom  er_0->afterMixColumns       $end
$var wire    1  aaaon  er_0->afterMixColumns       $end
$var wire    1  aaaoo  er_0->afterMixColumns       $end
$var wire    1  aaaop  er_0->afterMixColumns       $end
$var wire    1  aaaoq  er_0->afterMixColumns       $end
$var wire    1  aaaor  er_0->afterMixColumns       $end
$var wire    1  aaaos  er_0->afterMixColumns       $end
$var wire    1  aaaot  er_0->afterMixColumns       $end
$upscope $end
$enddefinitions  $end

$comment
All initial values are dumped below at time 0 sec = 0 timescale units.
$end

$dumpvars
0aaaaa
0aaaab
1aaaac
1aaaad
0aaaae
0aaaaf
0aaaag
1aaaah
1aaaai
0aaaaj
0aaaak
0aaaal
0aaaam
1aaaan
1aaaao
1aaaap
0aaaaq
0aaaar
0aaaas
0aaaat
1aaaau
1aaaav
1aaaaw
0aaaax
0aaaay
1aaaaz
0aaaba
1aaabb
1aaabc
1aaabd
0aaabe
1aaabf
1aaabg
1aaabh
1aaabi
0aaabj
0aaabk
1aaabl
1aaabm
1aaabn
0aaabo
0aaabp
0aaabq
0aaabr
0aaabs
1aaabt
1aaabu
1aaabv
0aaabw
0aaabx
0aaaby
0aaabz
0aaaca
1aaacb
1aaacc
0aaacd
1aaace
0aaacf
1aaacg
1aaach
0aaaci
0aaacj
1aaack
1aaacl
1aaacm
0aaacn
0aaaco
0aaacp
1aaacq
0aaacr
1aaacs
0aaact
0aaacu
0aaacv
0aaacw
0aaacx
1aaacy
0aaacz
1aaada
1aaadb
1aaadc
1aaadd
0aaade
0aaadf
1aaadg
0aaadh
1aaadi
0aaadj
1aaadk
0aaadl
0aaadm
1aaadn
0aaado
0aaadp
0aaadq
0aaadr
0aaads
0aaadt
1aaadu
0aaadv
0aaadw
0aaadx
0aaady
0aaadz
1aaaea
1aaaeb
1aaaec
0aaaed
1aaaee
1aaaef
0aaaeg
1aaaeh
0aaaei
1aaaej
0aaaek
1aaael
0aaaem
0aaaen
1aaaeo
1aaaep
1aaaeq
1aaaer
0aaaes
0aaaet
0aaaeu
1aaaev
1aaaew
0aaaex
1aaaey
1aaaez
1aaafa
0aaafb
0aaafc
1aaafd
1aaafe
1aaaff
0aaafg
0aaafh
0aaafi
0aaafj
1aaafk
0aaafl
1aaafm
1aaafn
0aaafo
1aaafp
0aaafq
1aaafr
0aaafs
0aaaft
1aaafu
1aaafv
0aaafw
1aaafx
0aaafy
1aaafz
1aaaga
1aaagb
0aaagc
1aaagd
1aaage
0aaagf
0aaagg
0aaagh
1aaagi
0aaagj
1aaagk
0aaagl
1aaagm
1aaagn
1aaago
0aaagp
1aaagq
1aaagr
0aaags
1aaagt
0aaagu
0aaagv
0aaagw
0aaagx
1aaagy
1aaagz
1aaaha
0aaahb
1aaahc
0aaahd
1aaahe
1aaahf
0aaahg
0aaahh
1aaahi
1aaahj
0aaahk
0aaahl
1aaahm
0aaahn
0aaaho
0aaahp
0aaahq
0aaahr
1aaahs
0aaaht
0aaahu
0aaahv
0aaahw
1aaahx
1aaahy
1aaahz
0aaaia
0aaaib
0aaaic
0aaaid
0aaaie
1aaaif
1aaaig
0aaaih
1aaaii
0aaaij
0aaaik
1aaail
0aaaim
0aaain
0aaaio
0aaaip
0aaaiq
0aaair
1aaais
1aaait
0aaaiu
0aaaiv
0aaaiw
1aaaix
0aaaiy
0aaaiz
0aaaja
0aaajb
0aaajc
1aaajd
1aaaje
1aaajf
1aaajg
1aaajh
0aaaji
0aaajj
1aaajk
0aaajl
1aaajm
0aaajn
1aaajo
1aaajp
0aaajq
0aaajr
0aaajs
1aaajt
1aaaju
0aaajv
0aaajw
1aaajx
0aaajy
1aaajz
1aaaka
0aaakb
0aaakc
0aaakd
1aaake
0aaakf
0aaakg
1aaakh
1aaaki
1aaakj
1aaakk
1aaakl
1aaakm
0aaakn
0aaako
1aaakp
1aaakq
1aaakr
0aaaks
1aaakt
1aaaku
0aaakv
1aaakw
1aaakx
1aaaky
0aaakz
0aaala
0aaalb
1aaalc
0aaald
0aaale
1aaalf
0aaalg
1aaalh
0aaali
0aaalj
1aaalk
1aaall
0aaalm
1aaaln
1aaalo
1aaalp
0aaalq
0aaalr
0aaals
1aaalt
1aaalu
1aaalv
1aaalw
1aaalx
0aaaly
1aaalz
1aaama
1aaamb
1aaamc
0aaamd
1aaame
1aaamf
1aaamg
1aaamh
0aaami
1aaamj
0aaamk
0aaaml
1aaamm
0aaamn
0aaamo
1aaamp
0aaamq
0aaamr
1aaams
1aaamt
1aaamu
1aaamv
0aaamw
1aaamx
1aaamy
0aaamz
1aaana
0aaanb
1aaanc
1aaand
1aaane
1aaanf
1aaang
1aaanh
1aaani
0aaanj
1aaank
0aaanl
1aaanm
0aaann
1aaano
0aaanp
1aaanq
0aaanr
1aaans
0aaant
0aaanu
0aaanv
0aaanw
0aaanx
1aaany
0aaanz
0aaaoa
1aaaob
1aaaoc
0aaaod
0aaaoe
1aaaof
0aaaog
0aaaoh
1aaaoi
1aaaoj
1aaaok
0aaaol
1aaaom
1aaaon
1aaaoo
1aaaop
1aaaoq
0aaaor
1aaaos
0aaaot
$end

#1000
1aaaaa
1aaaiq
1aaanp
1aaanw
1aaanx
1aaaoe
0aaaom

#45000
0aaaaa
0aaaiq
0aaanp
0aaanw
0aaanx
0aaaoe
1aaaom

#51000
0aaaau
0aaagy
1aaalg
0aaalo
0aaalx
0aaame
0aaamf

#95000
1aaaau
1aaagy
0aaalg
1aaalo
1aaalx
1aaame
1aaamf

#101000
1aaabo
1aaaiy
0aaano
1aaanx
1aaaoe
0aaaof
0aaaom

#145000
0aaabo
0aaaiy
1aaano
0aaanx
0aaaoe
1aaaof
1aaaom

#151000
1aaaci
1aaahg
1aaalg
0aaalh
0aaalo
0aaalw
0aaamf

#195000
0aaaci
0aaahg
0aaalg
1aaalh
1aaalo
1aaalw
1aaamf

#201000
0aaadc
0aaajg
0aaano
1aaanw
0aaaof
0aaaom
0aaaon

#245000
1aaadc
1aaajg
1aaano
0aaanw
1aaaof
1aaaom
1aaaon

#251000
1aaadw
1aaaho
1aaamn
0aaamu
0aaamv
0aaanc
0aaank

#295000
0aaadw
0aaaho
0aaamn
1aaamu
1aaamv
1aaanc
1aaank

#301000
0aaaeq
0aaajo
0aaano
1aaanp
1aaanw
1aaaoe
0aaaon

#345000
1aaaeq
1aaajo
1aaano
0aaanp
0aaanw
0aaaoe
1aaaon

#351000
1aaaam
1aaahw
0aaamm
0aaamv
0aaanc
0aaand
0aaank

#395000
0aaaam
0aaahw
1aaamm
1aaamv
1aaanc
1aaand
1aaank

#401000
0aaabg
0aaaey
0aaajx
0aaake
1aaakf
0aaakm
0aaaku

#445000
1aaabg
1aaaey
1aaajx
1aaake
0aaakf
1aaakm
1aaaku

#451000
1aaaca
1aaaie
0aaamm
0aaamu
0aaand
0aaank
1aaanl

#495000
0aaaca
0aaaie
1aaamm
1aaamu
1aaand
1aaank
0aaanl

#501000
0aaaey
0aaajx
0aaake
1aaakf
0aaakm
0aaaku

#545000
1aaaey
1aaajx
1aaake
0aaakf
1aaakm
1aaaku

#551000
1aaafs
0aaaka
0aaaki
0aaakr
0aaaky
1aaakz

#595000
0aaafs
1aaaka
1aaaki
1aaakr
1aaaky
0aaakz

#601000
0aaagm
0aaalc
0aaall
1aaals
0aaalt
0aaama

#645000
1aaagm
1aaalc
1aaall
0aaals
1aaalt
1aaama

#651000
1aaahg
1aaalg
0aaalh
0aaalo
0aaalw
0aaamf

#695000
0aaahg
0aaalg
1aaalh
1aaalo
1aaalw
1aaamf

#701000
1aaaia
1aaami
1aaamq
1aaamz
0aaang
0aaanh

#745000
0aaaia
0aaami
0aaamq
0aaamz
1aaang
1aaanh

#751000
1aaaiu
1aaant
1aaaoa
0aaaob
0aaaoi
0aaaoq

#795000
0aaaiu
0aaant
0aaaoa
1aaaob
1aaaoi
1aaaoq

#801000
0aaajo
0aaano
1aaanp
1aaanw
1aaaoe
0aaaon

#845000
1aaajo
1aaano
0aaanp
0aaanw
0aaaoe
1aaaon

#851000
0aaafk
0aaaka
0aaakj
0aaakq
0aaakr
0aaaky

#895000
1aaafk
1aaaka
1aaakj
1aaakq
1aaakr
1aaaky

#901000
0aaage
1aaald
0aaalk
0aaall
1aaals
0aaama

#945000
1aaage
0aaald
1aaalk
1aaall
0aaals
1aaama

#951000
0aaagy
1aaalg
0aaalo
0aaalx
0aaame
0aaamf

#995000
1aaagy
0aaalg
1aaalo
1aaalx
1aaame
1aaamf

#1001000
1aaajw

#1045000
0aaajw

#1051000
0aaakq

#1095000
1aaakq

#1101000
0aaalk

#1145000
1aaalk

#1151000
0aaame

#1195000
1aaame

#1201000
0aaamy

#1245000
1aaamy

#1251000
0aaans

#1295000
1aaans

#1301000
0aaaom

#1345000
1aaaom

#1351000
0aaaki

#1395000
1aaaki

#1401000
0aaalc

#1445000
1aaalc

#1451000
0aaalw

#1495000
1aaalw

